"spp_id","occurrenceRemarks"
"sp_1","Mexico, Central America and northwestern South America"
"sp_2","Venezuela, Colombia, and the Guianas in the north to Brazil, Argentina, and Paraguay in the south, to Bolivia, Peru, and Ecuador in the West"
"sp_3","Eastern and Central Cordilleras mountains in Colombia, Ecuador, and the far north of Peru."
"sp_4","Cambodia, Indonesia, Laos, Malaysia, Myanmar (Burma), Thailand, and Vietnam"
